[
  {
    "attributes": [
	
		{
			"attributes": [
			  {
				"description": "Горелка",
				"engUnits": "",
				"name": "Burner",
				"type": 1,
				"value": null,
				"values": null
			  },
			  {
				"description": "Выработка пара",
				"engUnits": "т/ч",
				"name": "Q_steam",
				"type": 3,
				"value": "0",
				"values": null
			  },
			  {
				"description": "Температура верхней головки",
				"engUnits": "°C",
				"name": "T_vg",
				"type": 3,
				"value": "0",
				"values": null
			  },
			  {
				"description": "Загрузка шихты",
				"engUnits": "т/ч",
				"name": "Load",
				"type": 3,
				"value": "0",
				"values": null
			  }
			],
			"hierarchicalName": "KVP_1",
			"parent": "Old_Waelz_Shop",
			"securityGroup": "Default",
			"shortDesc": "Печь КВП1",
			"tagName": "KVP_1"
		}
		
    ],
    "hierarchicalName": "Chel_Zinc_Plant.Waelz_Shop.New_Waelz_Shop",
    "parent": "Waelz_Shop",
    "securityGroup": "Default",
    "shortDesc": "Новый (КВП-5,6)",
    "tagName": "New_Waelz_Shop"
  }
  {
    "attributes": [
    ],
    "hierarchicalName": "Chel_Zinc_Plant.Waelz_Shop.Old_Waelz_Shop",
    "parent": "Waelz_Shop",
    "securityGroup": "Default",
    "shortDesc": "Старый",
    "tagName": "Old_Waelz_Shop"
  }
]
