<?xml version="1.0" encoding="UTF-8" standalone="no"?>
<!-- Created with Inkscape (http://www.inkscape.org/) -->

<svg
   xmlns:dc="http://purl.org/dc/elements/1.1/"
   xmlns:cc="http://creativecommons.org/ns#"
   xmlns:rdf="http://www.w3.org/1999/02/22-rdf-syntax-ns#"
   xmlns:svg="http://www.w3.org/2000/svg"
   xmlns="http://www.w3.org/2000/svg"
   xmlns:sodipodi="http://sodipodi.sourceforge.net/DTD/sodipodi-0.dtd"
   xmlns:inkscape="http://www.inkscape.org/namespaces/inkscape"
   width="92mm"
   height="92mm"
   viewBox="0 0 92 92"
   version="1.1"
   id="svg8"
   inkscape:version="0.92.4 (5da689c313, 2019-01-14)"
   sodipodi:docname="coloring.svg">
  <defs
     id="defs2" />
  <sodipodi:namedview
     id="base"
     pagecolor="#ffffff"
     bordercolor="#666666"
     borderopacity="1.0"
     inkscape:pageopacity="0.0"
     inkscape:pageshadow="2"
     inkscape:zoom="0.98994949"
     inkscape:cx="223.18816"
     inkscape:cy="247.58963"
     inkscape:document-units="mm"
     inkscape:current-layer="layer1"
     showgrid="false"
     inkscape:window-width="1280"
     inkscape:window-height="961"
     inkscape:window-x="-8"
     inkscape:window-y="-8"
     inkscape:window-maximized="1" />
  <metadata
     id="metadata5">
    <rdf:RDF>
      <cc:Work
         rdf:about="">
        <dc:format>image/svg+xml</dc:format>
        <dc:type
           rdf:resource="http://purl.org/dc/dcmitype/StillImage" />
        <dc:title></dc:title>
      </cc:Work>
    </rdf:RDF>
  </metadata>
  <g
     inkscape:label="Layer 1"
     inkscape:groupmode="layer"
     id="layer1"
     transform="translate(0,-205)">
    <rect
       style="fill:#ff0000;fill-opacity:1;stroke:#f2f2f2;stroke-width:2;stroke-miterlimit:4;stroke-dasharray:none;stroke-opacity:1"
       id="rect815"
       width="30"
       height="30"
       x="1"
       y="206" />
    <rect
       y="206"
       x="61"
       height="30"
       width="30"
       id="rect817"
       style="fill:#ff6600;fill-opacity:1;stroke:#f2f2f2;stroke-width:2;stroke-miterlimit:4;stroke-dasharray:none;stroke-opacity:1" />
    <rect
       style="fill:#008000;fill-opacity:1;stroke:#f2f2f2;stroke-width:2;stroke-miterlimit:4;stroke-dasharray:none;stroke-opacity:1"
       id="rect819"
       width="30"
       height="30"
       x="31"
       y="206" />
    <rect
       style="fill:#008080;fill-opacity:1;stroke:#f2f2f2;stroke-width:2;stroke-miterlimit:4;stroke-dasharray:none;stroke-opacity:1"
       id="rect821"
       width="30"
       height="30"
       x="1"
       y="236" />
    <rect
       y="236"
       x="31"
       height="30"
       width="30"
       id="rect823"
       style="fill:#ffcc00;fill-opacity:1;stroke:#f2f2f2;stroke-width:2;stroke-miterlimit:4;stroke-dasharray:none;stroke-opacity:1" />
    <rect
       style="fill:#0000ff;fill-opacity:1;stroke:#f2f2f2;stroke-width:2;stroke-miterlimit:4;stroke-dasharray:none;stroke-opacity:1"
       id="rect825"
       width="30"
       height="30"
       x="61"
       y="236" />
    <rect
       y="266"
       x="1"
       height="30"
       width="30"
       id="rect827"
       style="fill:#800080;fill-opacity:1;stroke:#f2f2f2;stroke-width:2;stroke-miterlimit:4;stroke-dasharray:none;stroke-opacity:1" />
    <rect
       style="fill:#89a02c;fill-opacity:1;stroke:#f2f2f2;stroke-width:2;stroke-miterlimit:4;stroke-dasharray:none;stroke-opacity:1"
       id="rect829"
       width="30"
       height="30"
       x="31"
       y="266" />
    <rect
       y="266"
       x="61"
       height="30"
       width="30"
       id="rect831"
       style="fill:#9955ff;fill-opacity:1;stroke:#f2f2f2;stroke-width:2;stroke-miterlimit:4;stroke-dasharray:none;stroke-opacity:1" />
  </g>
</svg>
