<?xml version="1.0" encoding="UTF-8" standalone="no"?>
<!-- Created with Inkscape (http://www.inkscape.org/) -->

<svg
   xmlns:dc="http://purl.org/dc/elements/1.1/"
   xmlns:cc="http://creativecommons.org/ns#"
   xmlns:rdf="http://www.w3.org/1999/02/22-rdf-syntax-ns#"
   xmlns:svg="http://www.w3.org/2000/svg"
   xmlns="http://www.w3.org/2000/svg"
   xmlns:sodipodi="http://sodipodi.sourceforge.net/DTD/sodipodi-0.dtd"
   xmlns:inkscape="http://www.inkscape.org/namespaces/inkscape"
   width="113.479"
   height="29.927999"
   viewBox="0 0 30.02465 7.9184501"
   version="1.1"
   id="svg3263"
   inkscape:version="0.92.4 (5da689c313, 2019-01-14)"
   sodipodi:docname="headerVIU.svg">
  <defs
     id="defs3257" />
  <sodipodi:namedview
     id="base"
     pagecolor="#ffffff"
     bordercolor="#666666"
     borderopacity="1.0"
     inkscape:pageopacity="0.0"
     inkscape:pageshadow="2"
     inkscape:zoom="5.6"
     inkscape:cx="55.274485"
     inkscape:cy="20.758781"
     inkscape:document-units="mm"
     inkscape:current-layer="layer1"
     showgrid="false"
     units="px"
     inkscape:window-width="1920"
     inkscape:window-height="1001"
     inkscape:window-x="-9"
     inkscape:window-y="-9"
     inkscape:window-maximized="1" />
  <metadata
     id="metadata3260">
    <rdf:RDF>
      <cc:Work
         rdf:about="">
        <dc:format>image/svg+xml</dc:format>
        <dc:type
           rdf:resource="http://purl.org/dc/dcmitype/StillImage" />
        <dc:title></dc:title>
      </cc:Work>
    </rdf:RDF>
  </metadata>
  <g
     inkscape:label="Layer 1"
     inkscape:groupmode="layer"
     id="layer1"
     transform="translate(0,-289.08153)">
    <text
       id="text2466"
       y="295.1759"
       x="8.6761608"
       style="font-style:normal;font-weight:normal;font-size:5.89850855px;line-height:1.25;font-family:sans-serif;letter-spacing:0px;word-spacing:0px;fill:#ffffff;fill-opacity:1;stroke:none;stroke-width:0.1290388"
       xml:space="preserve"
       transform="scale(1.0000033,0.99999671)"><tspan
         style="fill:#ffffff;stroke-width:0.1290388"
         y="295.1759"
         x="8.6761608"
         id="tspan2464"
         sodipodi:role="line">ВИУ </tspan></text>
    <rect
       ry="4.5525317"
       y="289.19107"
       x="0.1095387"
       height="7.6993728"
       width="29.805923"
       id="rect17121"
       style="fill:#3c3c3c;fill-opacity:0;stroke:#ffffff;stroke-width:0.21907739;stroke-linejoin:round;stroke-miterlimit:4;stroke-dasharray:none;stroke-opacity:1;paint-order:fill markers stroke" />
  </g>
</svg>
