<?xml version="1.0" encoding="UTF-8" standalone="no"?>
<!-- Created with Inkscape (http://www.inkscape.org/) -->

<svg
   xmlns:dc="http://purl.org/dc/elements/1.1/"
   xmlns:cc="http://creativecommons.org/ns#"
   xmlns:rdf="http://www.w3.org/1999/02/22-rdf-syntax-ns#"
   xmlns:svg="http://www.w3.org/2000/svg"
   xmlns="http://www.w3.org/2000/svg"
   xmlns:sodipodi="http://sodipodi.sourceforge.net/DTD/sodipodi-0.dtd"
   xmlns:inkscape="http://www.inkscape.org/namespaces/inkscape"
   width="33"
   height="65"
   viewBox="0 0 8.7312499 17.197917"
   version="1.1"
   id="svg16444"
   inkscape:version="0.92.4 (5da689c313, 2019-01-14)"
   sodipodi:docname="pump_004.svg">
  <defs
     id="defs16438" />
  <sodipodi:namedview
     id="base"
     pagecolor="#ffffff"
     bordercolor="#666666"
     borderopacity="1.0"
     inkscape:pageopacity="0.0"
     inkscape:pageshadow="2"
     inkscape:zoom="15.839192"
     inkscape:cx="23.223476"
     inkscape:cy="36.252229"
     inkscape:document-units="mm"
     inkscape:current-layer="layer1"
     showgrid="false"
     units="px"
     inkscape:window-width="1920"
     inkscape:window-height="1001"
     inkscape:window-x="-9"
     inkscape:window-y="-9"
     inkscape:window-maximized="1" />
  <metadata
     id="metadata16441">
    <rdf:RDF>
      <cc:Work
         rdf:about="">
        <dc:format>image/svg+xml</dc:format>
        <dc:type
           rdf:resource="http://purl.org/dc/dcmitype/StillImage" />
        <dc:title></dc:title>
      </cc:Work>
    </rdf:RDF>
  </metadata>
  <g
     inkscape:label="Layer 1"
     inkscape:groupmode="layer"
     id="layer1"
     transform="translate(0,-279.80207)">
    <path
       inkscape:connector-curvature="0"
       id="rect28573"
       d="m 2.8098257,280.91933 c -0.14865,0.0131 -0.24527,0.0268 -0.24527,0.0268 v 3.71841 c 0.54135,-0.28334 1.14051,-0.43197 1.74876,-0.43332 0.62435,7.1e-4 1.23904,0.15666 1.79144,0.45396 -0.69044,-0.72363 -1.29339,-1.8526 -1.32388,-3.32168 -0.006,-0.24962 -0.1141,-0.37938 -0.28185,-0.44411 z m 0.75409,0.42537 c 0.4554,-0.003 0.71044,0.11655 0.78786,0.47926 0.17608,0.82523 0.10643,1.42558 1.11707,2.46161 -0.85451,-0.33435 -1.57797,-0.4438 -2.21023,-0.29733 -0.032,-1.03594 -0.0245,-1.91821 -0.0352,-2.57226 0.0643,-0.0469 0.18867,-0.0705 0.34046,-0.0712 z m 0.7494,3.23301 c -2.1128,-6e-5 -3.82540999,1.74963 -3.82532999,3.90835 -8e-5,2.15873 1.71253999,3.90889 3.82532999,3.90881 2.1128,8e-5 3.82541,-1.75008 3.82534,-3.90881 8e-5,-2.15872 -1.71254,-3.90841 -3.82534,-3.90835 z m -0.0239,1.00734 c 0.63384,4.8e-4 1.24971,0.21712 1.74923,0.61576 -0.0123,-0.0176 -0.0259,-0.0326 -0.0385,-0.0497 0.68802,0.52055 1.14005,1.34848 1.15506,2.28714 -2.4e-4,-2e-5 -6.9e-4,0 -9.5e-4,0 10e-4,0.0191 0.002,0.0384 0.003,0.0577 -7.1e-4,0.0191 -0.002,0.0384 -0.003,0.0577 2.4e-4,-1e-5 6.9e-4,10e-6 9.5e-4,0 -0.0147,0.92128 -0.45004,1.73594 -1.1166,2.25806 v -0.0105 c -0.30524,0.24361 -0.65463,0.41832 -1.02422,0.51822 -0.0166,0.004 -0.033,0.009 -0.0497,0.0131 -0.0483,0.0118 -0.0969,0.0223 -0.14585,0.0319 -0.0671,0.0118 -0.13444,0.0236 -0.20306,0.0309 -0.006,7.2e-4 -0.0128,0.003 -0.0192,0.003 -0.0932,0.009 -0.18763,0.0145 -0.28325,0.0145 -0.63384,-4.5e-4 -1.24925,-0.21706 -1.74877,-0.61572 0.0123,0.0174 0.0251,0.0322 0.0375,0.0492 -0.68781,-0.52055 -1.13911,-1.34864 -1.15412,-2.28713 h 4.6e-4 c -0.001,-0.0191 -0.001,-0.038 -0.002,-0.0572 8e-4,-0.0191 10e-4,-0.038 0.002,-0.0572 h -4.6e-4 c 0.0147,-0.92139 0.4499,-1.73687 1.1166,-2.259 v 0.0118 c 0.30556,-0.24387 0.65466,-0.41882 1.02468,-0.51868 0.0161,-0.004 0.0321,-0.009 0.0483,-0.0131 0.0486,-0.0118 0.0976,-0.0218 0.14679,-0.0313 0.0654,-0.0118 0.13102,-0.0232 0.1979,-0.0306 0.009,-7.2e-4 0.0168,-0.003 0.0253,-0.004 0.0927,-0.009 0.18675,-0.0142 0.28185,-0.0142 z m -2.04281,6.54063 c 0.64381,0.74911 1.3475,1.99152 1.50491,3.46049 0.003,0.11341 0.0301,0.20158 0.0741,0.27294 h 2.21304 v -3.53927 c -0.53516,0.27556 -1.12605,0.4196 -1.72532,0.42113 -0.73211,-2.3e-4 -1.44898,-0.21382 -2.06672,-0.61529 z m 0.66077,0.57917 c 0.85413,0.33406 1.6434,0.44375 2.27541,0.29734 0.032,1.03593 -0.0228,1.4197 -0.0122,2.07375 -0.0794,0.81171 -1.14861,0.44211 -1.25401,0.0563 -0.17605,-0.82507 9.8e-4,-1.3916 -1.00921,-2.42736 z"
       style="fill:#cccccc;fill-opacity:1;stroke:#ffffff;stroke-width:0;stroke-linejoin:round;stroke-miterlimit:4;stroke-dasharray:none;stroke-opacity:1;paint-order:markers stroke fill" />
    <rect
       y="280.2157"
       x="2.0192521"
       height="0.53057134"
       width="3.1336873"
       id="rect28695"
       style="fill:#cccccc;fill-opacity:1;stroke:#ff0000;stroke-width:0;stroke-linejoin:round;stroke-miterlimit:4;stroke-dasharray:none;stroke-opacity:1;paint-order:markers stroke fill" />
    <rect
       style="fill:#cccccc;fill-opacity:1;stroke:#ff0000;stroke-width:0;stroke-linejoin:round;stroke-miterlimit:4;stroke-dasharray:none;stroke-opacity:1;paint-order:markers stroke fill"
       id="rect28697"
       width="3.1336873"
       height="0.53057134"
       x="3.2620051"
       y="296.09494" />
    <path
       style="fill:#cccccc;fill-opacity:1;stroke:#ffffff;stroke-width:0;stroke-linejoin:round;stroke-miterlimit:4;stroke-dasharray:none;stroke-opacity:1;paint-order:markers stroke fill"
       d="m 6.1891325,286.44682 c 0.00329,-1.5e-4 -0.00433,-0.008 -0.059693,-0.0582 -0.047935,-0.0437 -0.098248,-0.087 -0.1527331,-0.12944 -0.045326,-0.0354 -0.1354185,-0.10161 -0.1467343,-0.10744 -0.015433,-0.008 -0.152637,-0.006 -0.2397882,0.003 -0.3737903,0.0361 -0.5816896,0.19419 -0.8192412,0.38429 -0.216367,0.20364 -0.4053484,0.50434 -0.5249828,0.83513 -0.020019,0.0555 -0.034785,0.10239 -0.032106,0.10394 8.432e-4,5.2e-4 0.022319,0.0233 0.039026,0.0405 a 0.95937208,0.98022794 45 0 0 -0.3438156,0.0934 l -0.028805,-0.017 c -0.0802,-0.0486 -0.1802324,-0.12118 -0.237142,-0.17133 -0.4074201,-0.40884 -0.4726346,-0.64064 -0.4205861,-1.05829 0.02708,-0.10132 0.063682,-0.18092 0.1248308,-0.27081 0.039884,-0.0587 0.1007182,-0.13029 0.1513306,-0.17849 0.013334,-0.0134 0.024843,-0.0248 0.02529,-0.026 0.00135,-0.003 -0.00848,-0.001 -0.080634,0.0224 -0.061993,0.0194 -0.1247469,0.0417 -0.1887498,0.0677 -0.053311,0.0212 -0.1553717,0.0667 -0.1659902,0.0738 -0.015001,0.009 -0.081464,0.1287 -0.1172626,0.20876 -0.1556362,0.34177 -0.1226507,0.6013 -0.07678,0.90208 l 3.67e-4,-3.7e-4 c 0.068344,0.28914 0.2340454,0.6032 0.4606834,0.87218 0.035032,0.042 0.062516,0.0696 0.068986,0.0733 a 0.95937208,0.98022794 45 0 0 -0.076772,0.28026 l -0.047394,0.024 c -0.083439,0.0426 -0.1977526,0.0898 -0.2700658,0.11273 -0.5613356,0.13419 -0.7934758,0.0686 -1.1225628,-0.19366 -0.071934,-0.0762 -0.1211789,-0.14871 -0.1660216,-0.24777 -0.028651,-0.0648 -0.058533,-0.15371 -0.073714,-0.22205 -0.00341,-0.0182 -0.00779,-0.0341 -0.00869,-0.0352 -0.00197,-0.003 -0.00484,0.006 -0.023121,0.0798 -0.015712,0.0631 -0.028855,0.12855 -0.040098,0.19669 -0.00951,0.0566 -0.02452,0.16721 -0.02419,0.18004 0.001,0.0177 0.067402,0.13671 0.1168435,0.20919 0.2102004,0.31117 0.4495154,0.4184 0.7299684,0.53633 0.2822898,0.0926 0.6364253,0.11494 0.9841293,0.062 0.058486,-0.009 0.1068622,-0.0184 0.1070616,-0.0216 7.28e-5,-5.3e-4 0.00779,-0.005 0.01053,-0.006 a 0.95937208,0.98022794 45 0 0 0.095543,0.11474 0.95937208,0.98022794 45 0 0 0.094871,0.0822 l -0.00332,0.0503 c -0.00482,0.0936 -0.021104,0.21605 -0.037438,0.29008 -0.1644476,0.55326 -0.337144,0.72176 -0.7288435,0.8756 -0.1018117,0.0246 -0.1890878,0.0304 -0.2972712,0.0196 -0.070564,-0.008 -0.1628767,-0.0264 -0.2295501,-0.0473 -0.017125,-0.007 -0.032938,-0.01 -0.0344,-0.009 -0.00329,1.5e-4 0.00278,0.007 0.057921,0.0593 0.046602,0.0452 0.096774,0.0897 0.1501808,0.13352 0.043968,0.0369 0.1324215,0.10443 0.1437043,0.11046 0.015601,0.008 0.1519166,0.0103 0.2394232,0.003 0.3745695,-0.0265 0.5867446,-0.17984 0.829077,-0.36386 l 3.753e-4,3.7e-4 c 0.2213467,-0.19815 0.4177519,-0.49426 0.5457593,-0.82187 0.021574,-0.0551 0.037406,-0.10104 0.034797,-0.10282 -0.00177,-0.001 -0.038295,-0.002 -0.071514,-0.003 a 0.95937208,0.98022794 45 0 0 0.4224848,-0.1063 l 0.043837,0.0288 c 0.079163,0.0503 0.1779634,0.12419 0.2344798,0.17475 0.4017015,0.41443 0.4637222,0.64784 0.4058371,1.06471 -0.028497,0.1009 -0.065844,0.17983 -0.1282148,0.26893 -0.040732,0.0581 -0.1026395,0.12908 -0.1538929,0.17666 -0.013752,0.0129 -0.02517,0.0242 -0.025698,0.0257 -0.00135,0.003 0.00762,0.001 0.080559,-0.0216 0.062247,-0.0187 0.125502,-0.0402 0.18983,-0.0651 0.053524,-0.0205 0.155627,-0.0643 0.1664246,-0.0711 0.015001,-0.009 0.083279,-0.12782 0.1202819,-0.20725 0.1604022,-0.33954 0.130896,-0.59953 0.08926,-0.90093 l 3.746e-4,-3.8e-4 c -0.064208,-0.29011 -0.2253305,-0.6065 -0.4481966,-0.87862 -0.038011,-0.0452 -0.07053,-0.0818 -0.073255,-0.0803 -9.336e-4,4.9e-4 -0.017517,-0.01 -0.033191,-0.0182 a 0.95937208,0.98022794 45 0 0 0.073871,-0.30489 l -4.29e-4,0.0382 0.050763,-0.0273 c 0.08235,-0.0447 0.1950991,-0.0953 0.2670153,-0.11953 0.557779,-0.1484 0.7914665,-0.0889 1.1271125,0.16492 0.07413,0.074 0.1247933,0.14524 0.1721494,0.24315 0.030821,0.0641 0.062559,0.15249 0.079137,0.2204 0.00489,0.0176 0.00905,0.0337 0.00988,0.0348 0.00189,0.003 0.0042,-0.007 0.020777,-0.0806 0.014083,-0.0634 0.025792,-0.12902 0.035552,-0.19743 0.00814,-0.0569 0.020027,-0.16767 0.019297,-0.18044 -0.001,-0.0177 -0.070808,-0.1351 -0.1221547,-0.20615 -0.2181319,-0.30568 -0.4593085,-0.40684 -0.7428224,-0.51743 -0.2845327,-0.0856 -0.6393854,-0.0989 -0.9856689,-0.0371 -0.05812,0.0103 -0.1059301,0.0211 -0.10593,0.0242 -5.4e-6,2.3e-4 -0.00195,0.005 -0.00345,0.006 a 0.95937208,0.98022794 45 0 0 -0.095297,-0.11198 0.95937208,0.98022794 45 0 0 -0.1550687,-0.12406 l 0.040931,-0.002 0.00185,-0.0572 c 0.00233,-0.0937 0.014581,-0.21683 0.029508,-0.29121 0.150373,-0.55726 0.3188702,-0.72963 0.7065276,-0.89339 0.1012736,-0.0273 0.1884544,-0.0355 0.2969112,-0.0276 0.070857,0.005 0.1631073,0.0225 0.230331,0.0419 0.017735,0.006 0.033792,0.009 0.035196,0.009 z"
       id="ellipse13400"
       inkscape:connector-curvature="0" />
  </g>
</svg>
