<?xml version="1.0" encoding="UTF-8" standalone="no"?>
<!-- Created with Inkscape (http://www.inkscape.org/) -->

<svg
   xmlns:dc="http://purl.org/dc/elements/1.1/"
   xmlns:cc="http://creativecommons.org/ns#"
   xmlns:rdf="http://www.w3.org/1999/02/22-rdf-syntax-ns#"
   xmlns:svg="http://www.w3.org/2000/svg"
   xmlns="http://www.w3.org/2000/svg"
   xmlns:sodipodi="http://sodipodi.sourceforge.net/DTD/sodipodi-0.dtd"
   xmlns:inkscape="http://www.inkscape.org/namespaces/inkscape"
   width="65"
   height="33"
   viewBox="0 0 17.197916 8.7312502"
   version="1.1"
   id="svg16444"
   inkscape:version="0.92.4 (5da689c313, 2019-01-14)"
   sodipodi:docname="pump_90_001.svg">
  <defs
     id="defs16438">
    <inkscape:perspective
       sodipodi:type="inkscape:persp3d"
       inkscape:vp_x="0 : 8.5989585 : 1"
       inkscape:vp_y="0 : 1000 : 0"
       inkscape:vp_z="8.7312497 : 8.5989585 : 1"
       inkscape:persp3d-origin="4.3656248 : 5.732639 : 1"
       id="perspective3012" />
  </defs>
  <sodipodi:namedview
     id="base"
     pagecolor="#ffffff"
     bordercolor="#666666"
     borderopacity="1.0"
     inkscape:pageopacity="0.0"
     inkscape:pageshadow="2"
     inkscape:zoom="5.6"
     inkscape:cx="25.505931"
     inkscape:cy="14.283573"
     inkscape:document-units="mm"
     inkscape:current-layer="layer1"
     showgrid="false"
     units="px"
     inkscape:window-width="1920"
     inkscape:window-height="1001"
     inkscape:window-x="-9"
     inkscape:window-y="-9"
     inkscape:window-maximized="1"
     inkscape:snap-nodes="false" />
  <metadata
     id="metadata16441">
    <rdf:RDF>
      <cc:Work
         rdf:about="">
        <dc:format>image/svg+xml</dc:format>
        <dc:type
           rdf:resource="http://purl.org/dc/dcmitype/StillImage" />
        <dc:title></dc:title>
      </cc:Work>
    </rdf:RDF>
  </metadata>
  <g
     inkscape:label="Layer 1"
     inkscape:groupmode="layer"
     id="layer1"
     transform="translate(0,-288.26874)">
    <path
       inkscape:connector-curvature="0"
       id="rect28573"
       d="m 1.1764411,294.25103 c 0.0131,0.14865 0.0268,0.24527 0.0268,0.24527 h 3.71841 c -0.28334,-0.54135 -0.43197,-1.14051 -0.43332,-1.74876 7.1e-4,-0.62435 0.15666,-1.23904 0.45396,-1.79144 -0.72363,0.69044 -1.8526,1.29339 -3.32168,1.32388 -0.24962,0.006 -0.37938,0.1141 -0.44411,0.28185 z m 0.42537,-0.75409 c -0.003,-0.4554 0.11655,-0.71044 0.47926,-0.78786 0.82523,-0.17608 1.42558,-0.10643 2.46161,-1.11707 -0.33435,0.85451 -0.4438,1.57797 -0.29733,2.21023 -1.03594,0.032 -1.91821,0.0245 -2.57226,0.0352 -0.0469,-0.0643 -0.0705,-0.18867 -0.0712,-0.34046 z m 3.23301,-0.7494 c -6e-5,2.1128 1.74963,3.82541 3.90835,3.82533 2.1587309,8e-5 3.9088909,-1.71254 3.9088109,-3.82533 8e-5,-2.1128 -1.75008,-3.82541 -3.9088109,-3.82534 -2.15872,-8e-5 -3.90841,1.71254 -3.90835,3.82534 z m 1.00734,0.0239 c 4.8e-4,-0.63384 0.21712,-1.24971 0.61576,-1.74923 -0.0176,0.0123 -0.0326,0.0259 -0.0497,0.0385 0.52055,-0.68802 1.34848,-1.14005 2.28714,-1.15506 -2e-5,2.4e-4 0,6.9e-4 0,9.5e-4 0.0191,-0.001 0.0384,-0.002 0.0577,-0.003 0.0191,7.1e-4 0.0384,0.002 0.0577,0.003 -1e-5,-2.4e-4 10e-6,-6.9e-4 0,-9.5e-4 0.92128,0.0147 1.7359409,0.45004 2.2580609,1.1166 h -0.0105 c 0.24361,0.30524 0.41832,0.65463 0.51822,1.02422 0.004,0.0166 0.009,0.033 0.0131,0.0497 0.0118,0.0483 0.0223,0.0969 0.0319,0.14585 0.0118,0.0671 0.0236,0.13444 0.0309,0.20306 7.2e-4,0.006 0.003,0.0128 0.003,0.0192 0.009,0.0932 0.0145,0.18763 0.0145,0.28325 -4.5e-4,0.63384 -0.21706,1.24925 -0.61572,1.74877 0.0174,-0.0123 0.0322,-0.0251 0.0492,-0.0375 -0.52055,0.68781 -1.3486409,1.13911 -2.2871309,1.15412 v -4.6e-4 c -0.0191,10e-4 -0.038,10e-4 -0.0572,0.002 -0.0191,-8e-4 -0.038,-0.001 -0.0572,-0.002 v 4.6e-4 c -0.92139,-0.0147 -1.73687,-0.4499 -2.259,-1.1166 h 0.0118 c -0.24387,-0.30556 -0.41882,-0.65466 -0.51868,-1.02468 -0.004,-0.0161 -0.009,-0.0321 -0.0131,-0.0483 -0.0118,-0.0486 -0.0218,-0.0976 -0.0313,-0.14679 -0.0118,-0.0654 -0.0232,-0.13102 -0.0306,-0.1979 -7.2e-4,-0.009 -0.003,-0.0168 -0.004,-0.0253 -0.009,-0.0927 -0.0142,-0.18675 -0.0142,-0.28185 z m 6.5406309,2.04281 c 0.74911,-0.64381 1.991519,-1.3475 3.460489,-1.50491 0.11341,-0.003 0.20158,-0.0301 0.27294,-0.0741 v -2.21304 h -3.539269 c 0.27556,0.53516 0.4196,1.12605 0.42113,1.72532 -2.3e-4,0.73211 -0.21382,1.44898 -0.61529,2.06672 z m 0.57917,-0.66077 c 0.33406,-0.85413 0.44375,-1.6434 0.29734,-2.27541 1.035929,-0.032 1.419699,0.0228 2.073749,0.0122 0.81171,0.0794 0.44211,1.14861 0.0563,1.25401 -0.82507,0.17605 -1.391599,-9.8e-4 -2.427359,1.00921 z"
       style="fill:#cccccc;fill-opacity:1;stroke:#ffffff;stroke-width:0;stroke-linejoin:round;stroke-miterlimit:4;stroke-dasharray:none;stroke-opacity:1;paint-order:markers stroke fill" />
    <rect
       y="0.47280934"
       x="-295.0416"
       height="0.53057134"
       width="3.1336873"
       id="rect28695"
       style="fill:#cccccc;fill-opacity:1;stroke:#ff0000;stroke-width:0;stroke-linejoin:round;stroke-miterlimit:4;stroke-dasharray:none;stroke-opacity:1;paint-order:markers stroke fill"
       transform="rotate(-90)" />
    <rect
       style="fill:#cccccc;fill-opacity:1;stroke:#ff0000;stroke-width:0;stroke-linejoin:round;stroke-miterlimit:4;stroke-dasharray:none;stroke-opacity:1;paint-order:markers stroke fill"
       id="rect28697"
       width="3.1336873"
       height="0.53057134"
       x="-293.79886"
       y="16.352053"
       transform="rotate(-90)" />
    <path
       style="fill:#00ff00;fill-opacity:1;stroke:#ffffff;stroke-width:0;stroke-linejoin:round;stroke-miterlimit:4;stroke-dasharray:none;stroke-opacity:1;paint-order:markers stroke fill"
       d="m 5.9765611,292.84851 c -0.003,-0.002 -0.003,0.009 0.001,0.0834 0.003,0.0648 0.008,0.13097 0.0165,0.19951 0.007,0.0571 0.0239,0.16761 0.0278,0.17973 0.005,0.0168 0.10371,0.11212 0.17168,0.16742 0.28984,0.23878 0.54862,0.27401 0.85102,0.30756 0.29699,0.009 0.64325,-0.07 0.96175,-0.21931 0.0534,-0.0251 0.097,-0.0478 0.0962,-0.0508 -2.3e-4,-9.6e-4 9e-4,-0.0323 0.001,-0.0562 a 0.98022794,0.95937208 0 0 0 0.30918,0.17705 l 0.008,0.0326 c 0.0219,0.0912 0.0418,0.21311 0.0465,0.28884 -0.001,0.57718 -0.11879,0.7872 -0.45092,1.04572 -0.0908,0.0525 -0.17296,0.0829 -0.27977,0.10323 -0.0697,0.0133 -0.16333,0.0209 -0.23321,0.0192 -0.0189,5e-5 -0.0351,-3e-5 -0.0363,5.3e-4 -0.003,0.001 0.005,0.007 0.0728,0.0412 0.0576,0.0301 0.11773,0.0587 0.18133,0.0856 0.0527,0.0227 0.15703,0.0627 0.16955,0.0652 0.0172,0.004 0.14861,-0.0334 0.23054,-0.0647 0.35171,-0.13161 0.5119,-0.33845 0.69215,-0.58357 h -5.2e-4 c 0.15613,-0.25278 0.26103,-0.59202 0.29098,-0.94248 0.005,-0.0545 0.005,-0.0934 0.003,-0.10056 a 0.98022794,0.95937208 0 0 0 0.25246,-0.14389 l 0.0504,0.0166 c 0.0891,0.0289 0.20336,0.0763 0.27067,0.11126 0.4918209,0.30203 0.6096109,0.51253 0.6568309,0.93071 -0.003,0.10474 -0.0195,0.19085 -0.0578,0.29259 -0.0256,0.0661 -0.0673,0.15008 -0.10489,0.20914 -0.0105,0.0153 -0.0186,0.0296 -0.0187,0.031 -4e-5,0.003 0.008,-10e-4 0.0728,-0.0401 0.0557,-0.0335 0.11131,-0.0705 0.16744,-0.11073 0.0468,-0.0333 0.13558,-0.1009 0.14441,-0.1102 0.0118,-0.0132 0.049,-0.14433 0.0653,-0.23054 0.0714,-0.36867 -0.022,-0.61371 -0.13693,-0.89541 -0.13408,-0.26512 -0.36872,-0.53131 -0.6520209,-0.73975 -0.0476,-0.0351 -0.0885,-0.0626 -0.091,-0.0604 -4.2e-4,3.2e-4 -0.009,-0.002 -0.0118,-0.003 a 0.98022794,0.95937208 0 0 0 0.0136,-0.1487 0.98022794,0.95937208 0 0 0 -0.009,-0.12517 l 0.0379,-0.0332 c 0.0696,-0.0628 0.1677,-0.13785 0.2316,-0.17865 0.5074909,-0.27493 0.7487509,-0.27196 1.1345109,-0.10377 0.0894,0.0546 0.15522,0.1122 0.22412,0.1963 0.0446,0.0552 0.0965,0.13382 0.12888,0.19577 0.008,0.0166 0.0164,0.0302 0.0177,0.031 0.003,0.002 0.003,-0.007 10e-4,-0.0829 -10e-4,-0.0649 -0.005,-0.13186 -0.0118,-0.20059 -0.005,-0.0572 -0.0198,-0.16747 -0.0235,-0.17972 -0.005,-0.017 -0.10017,-0.11467 -0.16689,-0.1717 -0.28361,-0.24611 -0.54205,-0.28773 -0.84353,-0.32896 v -5.3e-4 c -0.29663,-0.0164 -0.6448909,0.0541 -0.9670609,0.19524 -0.0542,0.0237 -0.0979,0.045 -0.0973,0.0481 5e-4,0.002 0.0253,0.0287 0.0481,0.053 a 0.98022794,0.95937208 0 0 0 -0.3739,-0.22358 l -0.0105,-0.0514 c -0.0206,-0.0915 -0.038,-0.21367 -0.0422,-0.28938 0.009,-0.57709 0.13019,-0.78599 0.46589,-1.03983 0.0915,-0.0512 0.17372,-0.0806 0.28082,-0.0995 0.0699,-0.0123 0.16386,-0.0187 0.23374,-0.0161 0.0188,6.4e-4 0.035,6.4e-4 0.0363,0 0.003,-10e-4 -0.005,-0.006 -0.0722,-0.0417 -0.0572,-0.0308 -0.11721,-0.0603 -0.18026,-0.0882 -0.0524,-0.0233 -0.15549,-0.0646 -0.16796,-0.0674 -0.0172,-0.004 -0.14928,0.0315 -0.23161,0.0615 -0.35351,0.12667 -0.51648,0.33137 -0.70017,0.57394 h -5.3e-4 c -0.15973,0.25054 -0.26952,0.58819 -0.30435,0.9382 -0.005,0.0588 -0.008,0.10774 -0.005,0.10858 0.001,3.2e-4 0.005,0.0196 0.0105,0.0364 a 0.98022794,0.95937208 0 0 0 -0.26745,0.16314 l 0.0273,-0.0267 -0.0552,-0.0166 c -0.0899,-0.0266 -0.20531,-0.0706 -0.27332,-0.10429 -0.49934,-0.28948 -0.62255,-0.49676 -0.68038,-0.9136 -1.3e-4,-0.10473 0.0145,-0.19096 0.0502,-0.29366 0.0235,-0.0671 0.0636,-0.15207 0.0999,-0.21181 0.009,-0.0159 0.0174,-0.0302 0.0176,-0.0316 2.2e-4,-0.003 -0.008,0.002 -0.0717,0.0423 -0.0548,0.0349 -0.10948,0.073 -0.16475,0.11447 -0.046,0.0345 -0.13272,0.1044 -0.14123,0.11394 -0.0118,0.0132 -0.0455,0.14561 -0.0594,0.23215 -0.0619,0.37039 0.0371,0.61246 0.1594,0.89113 0.1408,0.26163 0.38222,0.52201 0.67077,0.72317 0.0484,0.0338 0.0898,0.06 0.092,0.0578 1.5e-4,-1.5e-4 0.005,-0.002 0.007,-0.002 a 0.98022794,0.95937208 0 0 0 -0.0118,0.14656 0.98022794,0.95937208 0 0 0 0.0219,0.19738 l -0.0306,-0.0273 -0.0417,0.0391 c -0.0679,0.0646 -0.16363,0.14301 -0.22678,0.18505 -0.50037,0.28771 -0.7414,0.29045 -1.13131,0.13213 -0.0909,-0.0523 -0.15842,-0.10811 -0.22948,-0.19042 -0.0464,-0.0538 -0.0995,-0.13121 -0.13313,-0.19256 -0.009,-0.0164 -0.0176,-0.0303 -0.0188,-0.031 z"
       id="ellipse13400"
       inkscape:connector-curvature="0" />
    <path
       sodipodi:type="star"
       style="opacity:0.98000004;fill:#b3b3b3;fill-opacity:1;stroke:#ececec;stroke-width:0;stroke-linecap:round;stroke-linejoin:round;stroke-miterlimit:4;stroke-dasharray:none;stroke-opacity:1;paint-order:fill markers stroke"
       id="path3064"
       sodipodi:sides="3"
       sodipodi:cx="12.695303"
       sodipodi:cy="286.07535"
       sodipodi:r1="4.2339506"
       sodipodi:r2="3.6667085"
       sodipodi:arg1="0.83563519"
       sodipodi:arg2="1.8828327"
       inkscape:flatsided="true"
       inkscape:rounded="0"
       inkscape:randomized="0"
       d="m 15.535042,289.21577 -6.9792896,-2.25134 5.4393626,-4.91858 z"
       transform="matrix(0.06628703,0.16944317,-0.20275909,0.05684704,73.175691,270.65944)" />
    <path
       transform="matrix(0.06618515,0.16948299,-0.20279323,0.05672513,61.256411,277.72913)"
       d="m 15.535042,289.21577 -6.9792896,-2.25134 5.4393626,-4.91858 z"
       inkscape:randomized="0"
       inkscape:rounded="0"
       inkscape:flatsided="true"
       sodipodi:arg2="1.8828327"
       sodipodi:arg1="0.83563519"
       sodipodi:r2="3.6667085"
       sodipodi:r1="4.2339506"
       sodipodi:cy="286.07535"
       sodipodi:cx="12.695303"
       sodipodi:sides="3"
       id="path3066"
       style="opacity:0.98000004;fill:#b3b3b3;fill-opacity:1;stroke:#ececec;stroke-width:0;stroke-linecap:round;stroke-linejoin:round;stroke-miterlimit:4;stroke-dasharray:none;stroke-opacity:1;paint-order:fill markers stroke"
       sodipodi:type="star" />
    <rect
       style="opacity:0.98000004;fill:#b3b3b3;fill-opacity:1;stroke:#cccccc;stroke-width:0.00831398;stroke-linecap:round;stroke-linejoin:round;stroke-miterlimit:4;stroke-dasharray:none;stroke-opacity:1;paint-order:fill markers stroke"
       id="rect3094"
       width="0.39168602"
       height="3.1081779"
       x="-296.30841"
       y="0.51898241"
       transform="rotate(-90)" />
    <rect
       y="12.462585"
       x="-289.27338"
       height="3.1081779"
       width="0.39168602"
       id="rect3096"
       style="opacity:0.98000004;fill:#b3b3b3;fill-opacity:1;stroke:#cccccc;stroke-width:0.00831398;stroke-linecap:round;stroke-linejoin:round;stroke-miterlimit:4;stroke-dasharray:none;stroke-opacity:1;paint-order:fill markers stroke"
       transform="rotate(-90)" />
  </g>
</svg>
