<?xml version="1.0" encoding="UTF-8" standalone="no"?>
<!-- Created with Inkscape (http://www.inkscape.org/) -->

<svg
   xmlns:dc="http://purl.org/dc/elements/1.1/"
   xmlns:cc="http://creativecommons.org/ns#"
   xmlns:rdf="http://www.w3.org/1999/02/22-rdf-syntax-ns#"
   xmlns:svg="http://www.w3.org/2000/svg"
   xmlns="http://www.w3.org/2000/svg"
   xmlns:sodipodi="http://sodipodi.sourceforge.net/DTD/sodipodi-0.dtd"
   xmlns:inkscape="http://www.inkscape.org/namespaces/inkscape"
   width="65"
   height="33"
   viewBox="0 0 17.197916 8.7312502"
   version="1.1"
   id="svg16444"
   inkscape:version="0.92.4 (5da689c313, 2019-01-14)"
   sodipodi:docname="pump_90_002.svg">
  <defs
     id="defs16438">
    <inkscape:perspective
       sodipodi:type="inkscape:persp3d"
       inkscape:vp_x="0 : 8.5989585 : 1"
       inkscape:vp_y="0 : 1000 : 0"
       inkscape:vp_z="8.7312497 : 8.5989585 : 1"
       inkscape:persp3d-origin="4.3656248 : 5.732639 : 1"
       id="perspective3012" />
  </defs>
  <sodipodi:namedview
     id="base"
     pagecolor="#ffffff"
     bordercolor="#666666"
     borderopacity="1.0"
     inkscape:pageopacity="0.0"
     inkscape:pageshadow="2"
     inkscape:zoom="15.839192"
     inkscape:cx="23.837939"
     inkscape:cy="19.014736"
     inkscape:document-units="mm"
     inkscape:current-layer="layer1"
     showgrid="false"
     units="px"
     inkscape:window-width="1920"
     inkscape:window-height="1001"
     inkscape:window-x="-9"
     inkscape:window-y="-9"
     inkscape:window-maximized="1"
     inkscape:snap-nodes="false" />
  <metadata
     id="metadata16441">
    <rdf:RDF>
      <cc:Work
         rdf:about="">
        <dc:format>image/svg+xml</dc:format>
        <dc:type
           rdf:resource="http://purl.org/dc/dcmitype/StillImage" />
        <dc:title />
      </cc:Work>
    </rdf:RDF>
  </metadata>
  <g
     inkscape:label="Layer 1"
     inkscape:groupmode="layer"
     id="layer1"
     transform="translate(0,-288.26874)">
    <path
       inkscape:connector-curvature="0"
       id="rect28573"
       d="m 1.1764411,294.25103 c 0.0131,0.14865 0.0268,0.24527 0.0268,0.24527 h 3.71841 c -0.28334,-0.54135 -0.43197,-1.14051 -0.43332,-1.74876 7.1e-4,-0.62435 0.15666,-1.23904 0.45396,-1.79144 -0.72363,0.69044 -1.8526,1.29339 -3.32168,1.32388 -0.24962,0.006 -0.37938,0.1141 -0.44411,0.28185 z m 0.42537,-0.75409 c -0.003,-0.4554 0.11655,-0.71044 0.47926,-0.78786 0.82523,-0.17608 1.42558,-0.10643 2.46161,-1.11707 -0.33435,0.85451 -0.4438,1.57797 -0.29733,2.21023 -1.03594,0.032 -1.91821,0.0245 -2.57226,0.0352 -0.0469,-0.0643 -0.0705,-0.18867 -0.0712,-0.34046 z m 3.23301,-0.7494 c -6e-5,2.1128 1.74963,3.82541 3.90835,3.82533 2.1587309,8e-5 3.9088909,-1.71254 3.9088109,-3.82533 8e-5,-2.1128 -1.75008,-3.82541 -3.9088109,-3.82534 -2.15872,-8e-5 -3.90841,1.71254 -3.90835,3.82534 z m 1.00734,0.0239 c 4.8e-4,-0.63384 0.21712,-1.24971 0.61576,-1.74923 -0.0176,0.0123 -0.0326,0.0259 -0.0497,0.0385 0.52055,-0.68802 1.34848,-1.14005 2.28714,-1.15506 -2e-5,2.4e-4 0,6.9e-4 0,9.5e-4 0.0191,-0.001 0.0384,-0.002 0.0577,-0.003 0.0191,7.1e-4 0.0384,0.002 0.0577,0.003 -1e-5,-2.4e-4 10e-6,-6.9e-4 0,-9.5e-4 0.92128,0.0147 1.7359409,0.45004 2.2580609,1.1166 h -0.0105 c 0.24361,0.30524 0.41832,0.65463 0.51822,1.02422 0.004,0.0166 0.009,0.033 0.0131,0.0497 0.0118,0.0483 0.0223,0.0969 0.0319,0.14585 0.0118,0.0671 0.0236,0.13444 0.0309,0.20306 7.2e-4,0.006 0.003,0.0128 0.003,0.0192 0.009,0.0932 0.0145,0.18763 0.0145,0.28325 -4.5e-4,0.63384 -0.21706,1.24925 -0.61572,1.74877 0.0174,-0.0123 0.0322,-0.0251 0.0492,-0.0375 -0.52055,0.68781 -1.3486409,1.13911 -2.2871309,1.15412 v -4.6e-4 c -0.0191,10e-4 -0.038,10e-4 -0.0572,0.002 -0.0191,-8e-4 -0.038,-0.001 -0.0572,-0.002 v 4.6e-4 c -0.92139,-0.0147 -1.73687,-0.4499 -2.259,-1.1166 h 0.0118 c -0.24387,-0.30556 -0.41882,-0.65466 -0.51868,-1.02468 -0.004,-0.0161 -0.009,-0.0321 -0.0131,-0.0483 -0.0118,-0.0486 -0.0218,-0.0976 -0.0313,-0.14679 -0.0118,-0.0654 -0.0232,-0.13102 -0.0306,-0.1979 -7.2e-4,-0.009 -0.003,-0.0168 -0.004,-0.0253 -0.009,-0.0927 -0.0142,-0.18675 -0.0142,-0.28185 z m 6.5406309,2.04281 c 0.74911,-0.64381 1.991519,-1.3475 3.460489,-1.50491 0.11341,-0.003 0.20158,-0.0301 0.27294,-0.0741 v -2.21304 h -3.539269 c 0.27556,0.53516 0.4196,1.12605 0.42113,1.72532 -2.3e-4,0.73211 -0.21382,1.44898 -0.61529,2.06672 z m 0.57917,-0.66077 c 0.33406,-0.85413 0.44375,-1.6434 0.29734,-2.27541 1.035929,-0.032 1.419699,0.0228 2.073749,0.0122 0.81171,0.0794 0.44211,1.14861 0.0563,1.25401 -0.82507,0.17605 -1.391599,-9.8e-4 -2.427359,1.00921 z"
       style="fill:#cccccc;fill-opacity:1;stroke:#ffffff;stroke-width:0;stroke-linejoin:round;stroke-miterlimit:4;stroke-dasharray:none;stroke-opacity:1;paint-order:markers stroke fill" />
    <rect
       y="0.47280934"
       x="-295.0416"
       height="0.53057134"
       width="3.1336873"
       id="rect28695"
       style="fill:#cccccc;fill-opacity:1;stroke:#ff0000;stroke-width:0;stroke-linejoin:round;stroke-miterlimit:4;stroke-dasharray:none;stroke-opacity:1;paint-order:markers stroke fill"
       transform="rotate(-90)" />
    <rect
       style="fill:#cccccc;fill-opacity:1;stroke:#ff0000;stroke-width:0;stroke-linejoin:round;stroke-miterlimit:4;stroke-dasharray:none;stroke-opacity:1;paint-order:markers stroke fill"
       id="rect28697"
       width="3.1336873"
       height="0.53057134"
       x="-293.79886"
       y="16.352053"
       transform="rotate(-90)" />
    <path
       style="fill:#00ff00;fill-opacity:1;stroke:#ffffff;stroke-width:0;stroke-linejoin:round;stroke-miterlimit:4;stroke-dasharray:none;stroke-opacity:1;paint-order:markers stroke fill"
       d="m 6.038894,292.13039 c -0.00238,-0.003 -0.00523,0.008 -0.02062,0.0808 -0.013874,0.0634 -0.02617,0.12857 -0.035699,0.19698 -0.00802,0.057 -0.020295,0.16808 -0.019665,0.1808 4.815e-4,0.0175 0.071157,0.13514 0.1224987,0.20615 0.2181631,0.30566 0.4590072,0.40667 0.7424198,0.51734 0.2845409,0.0856 0.6394491,0.0989 0.9857408,0.0371 0.058077,-0.0104 0.1060663,-0.0211 0.10607,-0.0242 2.63e-5,-9.9e-4 0.00923,-0.031 0.015512,-0.054 a 0.98022794,0.95937208 15 0 0 0.252821,0.25103 l -7.101e-4,0.0336 c -0.00245,0.0938 -0.014781,0.21667 -0.029842,0.29104 -0.1503511,0.55725 -0.3184847,0.72963 -0.7062075,0.89338 -0.1012941,0.0272 -0.1885227,0.0353 -0.296955,0.0273 -0.070767,-0.005 -0.163174,-0.0221 -0.2302329,-0.0418 -0.018269,-0.005 -0.033896,-0.009 -0.0352,-0.009 -0.00316,1.9e-4 0.00302,0.008 0.059656,0.0586 0.047847,0.044 0.098526,0.0872 0.1529964,0.12962 0.045029,0.0356 0.1354514,0.1012 0.1468977,0.10686 0.015579,0.008 0.1521908,0.006 0.2394302,-0.003 0.3737889,-0.0361 0.5820547,-0.19443 0.8196046,-0.38454 l -5.023e-4,-1.4e-4 c 0.2162343,-0.20375 0.4053616,-0.50428 0.5249968,-0.83505 0.018935,-0.0514 0.029003,-0.0889 0.028925,-0.0964 a 0.98022794,0.95937208 15 0 0 0.2810991,-0.0736 l 0.044386,0.0291 c 0.078584,0.051 0.1766828,0.12634 0.232651,0.17753 0.3968914,0.41903 0.4561864,0.65284 0.3935644,1.069 -0.030006,0.10039 -0.068231,0.1793 -0.1315583,0.26766 -0.041836,0.0572 -0.1038504,0.12754 -0.1554454,0.17486 -0.014102,0.0121 -0.025627,0.0238 -0.026086,0.0251 -8.151e-4,0.003 0.00799,0.001 0.080698,-0.0199 0.062473,-0.0179 0.125764,-0.0393 0.1903937,-0.0636 0.053824,-0.02 0.157075,-0.0624 0.1680112,-0.0691 0.014814,-0.01 0.084685,-0.12673 0.1227433,-0.20578 0.164386,-0.33763 0.137589,-0.59849 0.09948,-0.90034 -0.06089,-0.29079 -0.2186433,-0.60864 -0.4383427,-0.8833 -0.036894,-0.0462 -0.069282,-0.0834 -0.072267,-0.0819 -4.885e-4,2e-4 -0.00818,-0.004 -0.010621,-0.006 a 0.98022794,0.95937208 15 0 0 0.051623,-0.14012 0.98022794,0.95937208 15 0 0 0.023703,-0.12323 l 0.045201,-0.0223 c 0.083482,-0.0426 0.197664,-0.0897 0.2699464,-0.11262 0.561356,-0.13421 0.793626,-0.0689 1.122711,0.1934 0.07222,0.0759 0.120892,0.14855 0.165677,0.24762 0.02879,0.0649 0.05858,0.15423 0.07382,0.22245 0.0034,0.0181 0.008,0.0334 0.0091,0.0345 0.0024,0.003 0.0047,-0.006 0.02242,-0.0798 0.01583,-0.063 0.0293,-0.12866 0.04052,-0.19681 0.01,-0.0565 0.02422,-0.16689 0.02382,-0.17968 -4.3e-4,-0.0177 -0.06708,-0.13669 -0.116765,-0.20904 -0.210248,-0.31113 -0.44911,-0.41822 -0.729646,-0.53607 l 1.37e-4,-5.2e-4 c -0.282278,-0.0926 -0.636919,-0.11465 -0.9846406,-0.0617 -0.058487,0.009 -0.106211,0.0181 -0.1064338,0.0213 -3.47e-5,0.002 0.01701,0.0343 0.032744,0.0636 a 0.98022794,0.95937208 15 0 0 -0.3032929,-0.31274 l 0.00316,-0.0524 c 0.00378,-0.0937 0.018597,-0.21623 0.034135,-0.29044 0.1580552,-0.5551 0.329183,-0.72552 0.7191426,-0.88382 0.101634,-0.0258 0.188662,-0.0329 0.297004,-0.0234 0.0707,0.006 0.163117,0.0244 0.229943,0.045 0.01799,0.005 0.03364,0.01 0.03506,0.009 0.0032,-1.9e-4 -0.0033,-0.007 -0.05895,-0.059 -0.04728,-0.0446 -0.09761,-0.0886 -0.15129,-0.13185 -0.04458,-0.0361 -0.133472,-0.10265 -0.144793,-0.10858 -0.01558,-0.008 -0.152346,-0.008 -0.239635,-5.4e-4 -0.3742493,0.0309 -0.5846465,0.1864 -0.8248591,0.37317 l -5.12e-4,-1.4e-4 c -0.2191318,0.20066 -0.4125711,0.49839 -0.5368035,0.82746 -0.020048,0.0555 -0.035613,0.102 -0.032932,0.10359 8.831e-4,5.6e-4 -2.432e-4,0.0202 7.212e-4,0.0379 a 0.98022794,0.95937208 15 0 0 -0.3005606,0.0884 l 0.03328,-0.0187 -0.049023,-0.0303 c -0.079952,-0.049 -0.1800416,-0.12134 -0.2370146,-0.17148 -0.4074024,-0.40885 -0.4727662,-0.64096 -0.4207395,-1.05856 0.02698,-0.1012 0.06343,-0.1807 0.1244943,-0.27067 0.040066,-0.0587 0.1007915,-0.13042 0.1513164,-0.17873 0.012809,-0.013 0.024623,-0.0247 0.025179,-0.026 9.889e-4,-0.003 -0.00825,-1.4e-4 -0.080205,0.0223 -0.061966,0.0195 -0.1246434,0.0422 -0.1887633,0.0679 -0.053362,0.0214 -0.1552184,0.0665 -0.1659076,0.0735 -0.014814,0.01 -0.081636,0.12888 -0.1174608,0.20887 -0.1556548,0.34175 -0.1226805,0.60119 -0.076673,0.90202 0.068288,0.28916 0.2340901,0.60315 0.4607439,0.87214 0.038003,0.0452 0.071211,0.0812 0.073905,0.0796 1.837e-4,-1.1e-4 0.00535,-6.4e-4 0.00728,-1.2e-4 a 0.98022794,0.95937208 15 0 0 -0.04933,0.13851 0.98022794,0.95937208 15 0 0 -0.029932,0.19632 l -0.022492,-0.0343 -0.050399,0.027 c -0.082306,0.0448 -0.1950681,0.0958 -0.2669471,0.12005 -0.5577851,0.1484 -0.7913114,0.0887 -1.1269593,-0.16518 -0.074266,-0.074 -0.1250411,-0.14543 -0.1723763,-0.24332 -0.030895,-0.064 -0.06215,-0.15249 -0.078756,-0.22046 -0.00445,-0.0182 -0.00916,-0.0338 -0.010136,-0.0348 z"
       id="ellipse13400"
       inkscape:connector-curvature="0" />
    <path
       sodipodi:type="star"
       style="opacity:0.98000004;fill:#00ff00;fill-opacity:1;stroke:#ececec;stroke-width:0;stroke-linecap:round;stroke-linejoin:round;stroke-miterlimit:4;stroke-dasharray:none;stroke-opacity:1;paint-order:fill markers stroke"
       id="path3064"
       sodipodi:sides="3"
       sodipodi:cx="12.695303"
       sodipodi:cy="286.07535"
       sodipodi:r1="4.2339506"
       sodipodi:r2="3.6667085"
       sodipodi:arg1="0.83563519"
       sodipodi:arg2="1.8828327"
       inkscape:flatsided="true"
       inkscape:rounded="0"
       inkscape:randomized="0"
       d="m 15.535042,289.21577 -6.9792896,-2.25134 5.4393626,-4.91858 z"
       transform="matrix(0.06628703,0.16944317,-0.20275909,0.05684704,73.175691,270.65944)" />
    <path
       transform="matrix(0.06618515,0.16948299,-0.20279323,0.05672513,61.256411,277.72913)"
       d="m 15.535042,289.21577 -6.9792896,-2.25134 5.4393626,-4.91858 z"
       inkscape:randomized="0"
       inkscape:rounded="0"
       inkscape:flatsided="true"
       sodipodi:arg2="1.8828327"
       sodipodi:arg1="0.83563519"
       sodipodi:r2="3.6667085"
       sodipodi:r1="4.2339506"
       sodipodi:cy="286.07535"
       sodipodi:cx="12.695303"
       sodipodi:sides="3"
       id="path3066"
       style="opacity:0.98000004;fill:#00ff00;fill-opacity:1;stroke:#ececec;stroke-width:0;stroke-linecap:round;stroke-linejoin:round;stroke-miterlimit:4;stroke-dasharray:none;stroke-opacity:1;paint-order:fill markers stroke"
       sodipodi:type="star" />
    <rect
       style="opacity:0.98000004;fill:#00ff00;fill-opacity:1;stroke:#cccccc;stroke-width:0.00831398;stroke-linecap:round;stroke-linejoin:round;stroke-miterlimit:4;stroke-dasharray:none;stroke-opacity:1;paint-order:fill markers stroke"
       id="rect3094"
       width="0.39168602"
       height="3.1081779"
       x="-296.30841"
       y="0.51898241"
       transform="rotate(-90)" />
    <rect
       y="12.462585"
       x="-289.27338"
       height="3.1081779"
       width="0.39168602"
       id="rect3096"
       style="opacity:0.98000004;fill:#00ff00;fill-opacity:1;stroke:#cccccc;stroke-width:0;stroke-linecap:round;stroke-linejoin:round;stroke-miterlimit:4;stroke-dasharray:none;stroke-opacity:1;paint-order:fill markers stroke"
       transform="rotate(-90)" />
  </g>
</svg>
