<?xml version="1.0" encoding="UTF-8" standalone="no"?>
<!-- Created with Inkscape (http://www.inkscape.org/) -->

<svg
   xmlns:dc="http://purl.org/dc/elements/1.1/"
   xmlns:cc="http://creativecommons.org/ns#"
   xmlns:rdf="http://www.w3.org/1999/02/22-rdf-syntax-ns#"
   xmlns:svg="http://www.w3.org/2000/svg"
   xmlns="http://www.w3.org/2000/svg"
   xmlns:sodipodi="http://sodipodi.sourceforge.net/DTD/sodipodi-0.dtd"
   xmlns:inkscape="http://www.inkscape.org/namespaces/inkscape"
   width="83.869003"
   height="110.57"
   viewBox="0 0 22.19034 29.25498"
   version="1.1"
   id="svg3095"
   inkscape:version="0.92.4 (5da689c313, 2019-01-14)"
   sodipodi:docname="tank_flat.svg">
  <defs
     id="defs3089" />
  <sodipodi:namedview
     id="base"
     pagecolor="#ffffff"
     bordercolor="#666666"
     borderopacity="1.0"
     inkscape:pageopacity="0.0"
     inkscape:pageshadow="2"
     inkscape:zoom="2.8"
     inkscape:cx="-2.9889027"
     inkscape:cy="46.144528"
     inkscape:document-units="mm"
     inkscape:current-layer="layer1"
     showgrid="false"
     units="px"
     inkscape:window-width="1920"
     inkscape:window-height="1001"
     inkscape:window-x="-9"
     inkscape:window-y="-9"
     inkscape:window-maximized="1" />
  <metadata
     id="metadata3092">
    <rdf:RDF>
      <cc:Work
         rdf:about="">
        <dc:format>image/svg+xml</dc:format>
        <dc:type
           rdf:resource="http://purl.org/dc/dcmitype/StillImage" />
        <dc:title></dc:title>
      </cc:Work>
    </rdf:RDF>
  </metadata>
  <g
     inkscape:label="Layer 1"
     inkscape:groupmode="layer"
     id="layer1"
     transform="translate(0,-267.745)">
    <path
       sodipodi:nodetypes="cccccsccccccccssccccccccccccccc"
       inkscape:connector-curvature="0"
       d="m 5e-7,270.82638 v 22.02289 l 0.008,0.005 c 0.0387,0.57062 0.36227,1.10671 0.89739,1.58447 0.57112,0.50993 1.38646,0.96121 2.38887,1.33971 2.00464,0.75702 4.7598,1.22153 7.8027995,1.22153 3.043,0 5.79813,-0.46451 7.8028,-1.22153 1.00232,-0.3785 1.81768,-0.82978 2.38887,-1.33971 0.57113,-0.50993 0.90088,-1.08611 0.90088,-1.70001 0.003,-0.61307 -0.006,-21.25333 -0.006,-21.86457 -0.1633,0.30548 -0.26617,0.5841 -0.53578,0.81617 l 0.067,21.14939 c -0.0478,0.46693 -0.31988,0.91925 -0.79774,1.34588 -0.52822,0.47163 -1.30361,0.90417 -2.26666,1.26784 -1.92612,0.72736 -4.601,1.18097 -7.55587,1.18097 -2.9548395,0 -5.6301695,-0.45361 -7.5563095,-1.18097 -0.96303,-0.36367 -1.73842,-0.79621 -2.26666,-1.26784 -0.50387,-0.44985 -0.77907,-0.92862 -0.80349,-1.42262 l 0.0653,-21.08156 c -0.26347,-0.2386 -0.43164,-0.50786 -0.53319,-0.85532 z m 11.0290795,-3.0813 c -5.9791595,3e-5 -10.8261995,1.28575 -10.8262195,2.87177 3e-5,1.58602 4.84706,2.87174 10.8262195,2.87177 5.97916,-3e-5 10.826171,-1.28575 10.82622,-2.87177 -5e-5,-1.58602 -4.84706,-2.87174 -10.82622,-2.87177 z m 0,0.2787 c 5.47338,1e-5 9.91039,1.16097 9.91028,2.59307 1.1e-4,1.4321 -4.4369,2.59306 -9.91028,2.59307 -5.4733895,-2e-5 -9.9103695,-1.16097 -9.9102895,-2.59307 -8e-5,-1.4321 4.4369,-2.59305 9.9102895,-2.59307 z"
       style="opacity:1;fill:#b3b3b3;fill-opacity:1;stroke:#ececec;stroke-width:0;stroke-linecap:round;stroke-linejoin:round;stroke-miterlimit:4;stroke-dasharray:none;stroke-opacity:1;paint-order:fill markers stroke"
       id="path51889" />
  </g>
</svg>
