<?xml version="1.0" encoding="UTF-8" standalone="no"?>
<!-- Created with Inkscape (http://www.inkscape.org/) -->

<svg
   xmlns:dc="http://purl.org/dc/elements/1.1/"
   xmlns:cc="http://creativecommons.org/ns#"
   xmlns:rdf="http://www.w3.org/1999/02/22-rdf-syntax-ns#"
   xmlns:svg="http://www.w3.org/2000/svg"
   xmlns="http://www.w3.org/2000/svg"
   xmlns:xlink="http://www.w3.org/1999/xlink"
   xmlns:sodipodi="http://sodipodi.sourceforge.net/DTD/sodipodi-0.dtd"
   xmlns:inkscape="http://www.inkscape.org/namespaces/inkscape"
   width="23.197001mm"
   height="6.2379999mm"
   viewBox="0 0 23.197001 6.2379999"
   version="1.1"
   id="svg2916"
   inkscape:version="0.92.4 (5da689c313, 2019-01-14)"
   sodipodi:docname="top_neutral.svg">
  <defs
     id="defs2910">
    <radialGradient
       inkscape:collect="always"
       xlink:href="#linearGradient1584"
       id="radialGradient1678"
       gradientUnits="userSpaceOnUse"
       gradientTransform="matrix(1.0613121,0,0,0.28539428,-233.1546,242.52573)"
       cx="230.61371"
       cy="179.94527"
       fx="230.61371"
       fy="179.94527"
       r="10.928491" />
    <linearGradient
       inkscape:collect="always"
       id="linearGradient1584">
      <stop
         style="stop-color:#00716d;stop-opacity:1;"
         offset="0"
         id="stop1580" />
      <stop
         style="stop-color:#00614f;stop-opacity:1"
         offset="1"
         id="stop1582" />
    </linearGradient>
  </defs>
  <sodipodi:namedview
     id="base"
     pagecolor="#ffffff"
     bordercolor="#666666"
     borderopacity="1.0"
     inkscape:pageopacity="0.0"
     inkscape:pageshadow="2"
     inkscape:zoom="2.8"
     inkscape:cx="72.93451"
     inkscape:cy="59.609951"
     inkscape:document-units="mm"
     inkscape:current-layer="layer1"
     showgrid="false"
     inkscape:window-width="1280"
     inkscape:window-height="961"
     inkscape:window-x="-8"
     inkscape:window-y="-8"
     inkscape:window-maximized="1" />
  <metadata
     id="metadata2913">
    <rdf:RDF>
      <cc:Work
         rdf:about="">
        <dc:format>image/svg+xml</dc:format>
        <dc:type
           rdf:resource="http://purl.org/dc/dcmitype/StillImage" />
        <dc:title></dc:title>
      </cc:Work>
    </rdf:RDF>
  </metadata>
  <g
     inkscape:label="Layer 1"
     inkscape:groupmode="layer"
     id="layer1"
     transform="translate(0,-290.762)">
    <path
       sodipodi:nodetypes="ccccc"
       style="opacity:1;fill:url(#radialGradient1678);fill-opacity:1;stroke:#ececec;stroke-width:0;stroke-linecap:round;stroke-linejoin:round;stroke-miterlimit:4;stroke-dasharray:none;stroke-opacity:1;paint-order:fill markers stroke"
       d="m 11.598541,290.76215 c 6.40577,0 11.59865,1.39643 11.59854,3.119 C 23.196891,295.60367 18.004091,297 11.598541,297 5.1929905,297 1.9050175e-4,295.60367 5.0174754e-7,293.88115 -1.0949825e-4,292.15858 5.1927705,290.76215 11.598541,290.76215 Z"
       id="path1660"
       inkscape:connector-curvature="0" />
  </g>
</svg>
