<?xml version="1.0" encoding="UTF-8" standalone="no"?>
<!-- Created with Inkscape (http://www.inkscape.org/) -->

<svg
   xmlns:dc="http://purl.org/dc/elements/1.1/"
   xmlns:cc="http://creativecommons.org/ns#"
   xmlns:rdf="http://www.w3.org/1999/02/22-rdf-syntax-ns#"
   xmlns:svg="http://www.w3.org/2000/svg"
   xmlns="http://www.w3.org/2000/svg"
   xmlns:sodipodi="http://sodipodi.sourceforge.net/DTD/sodipodi-0.dtd"
   xmlns:inkscape="http://www.inkscape.org/namespaces/inkscape"
   width="100"
   height="30"
   viewBox="0 0 26.458333 7.9375003"
   version="1.1"
   id="svg1853"
   inkscape:version="0.92.4 (5da689c313, 2019-01-14)"
   sodipodi:docname="water_004.svg">
  <defs
     id="defs1847" />
  <sodipodi:namedview
     id="base"
     pagecolor="#ffffff"
     bordercolor="#666666"
     borderopacity="1.0"
     inkscape:pageopacity="0.0"
     inkscape:pageshadow="2"
     inkscape:zoom="3.959798"
     inkscape:cx="42.562547"
     inkscape:cy="6.8991964"
     inkscape:document-units="mm"
     inkscape:current-layer="layer1"
     showgrid="false"
     units="px"
     inkscape:window-width="1920"
     inkscape:window-height="1001"
     inkscape:window-x="-9"
     inkscape:window-y="-9"
     inkscape:window-maximized="1"
     inkscape:snap-nodes="false" />
  <metadata
     id="metadata1850">
    <rdf:RDF>
      <cc:Work
         rdf:about="">
        <dc:format>image/svg+xml</dc:format>
        <dc:type
           rdf:resource="http://purl.org/dc/dcmitype/StillImage" />
        <dc:title></dc:title>
      </cc:Work>
    </rdf:RDF>
  </metadata>
  <g
     inkscape:label="Layer 1"
     inkscape:groupmode="layer"
     id="layer1"
     transform="translate(0,-289.06248)">
    <path
       style="opacity:1;fill:#cccccc;fill-opacity:0.40909095;stroke:#ececec;stroke-width:0;stroke-linecap:round;stroke-linejoin:round;stroke-miterlimit:4;stroke-dasharray:none;stroke-opacity:1;paint-order:fill markers stroke"
       d="m 13.733843,289.7102 a 11.375028,3.0791976 0 0 0 -8.3547361,0.99518 11.375028,3.0791976 0 0 1 7.9215011,-0.86923 11.375028,3.0791976 0 0 1 11.375178,3.07876 11.375028,3.0791976 0 0 1 -2.672954,1.98318 11.375028,3.0791976 0 0 0 3.106189,-2.10914 11.375028,3.0791976 0 0 0 -11.375178,-3.07875 z"
       id="path1743"
       inkscape:connector-curvature="0" />
    <path
       style="opacity:1;fill:#cccccc;fill-opacity:0.40909095;stroke:#ececec;stroke-width:0;stroke-linecap:round;stroke-linejoin:round;stroke-miterlimit:4;stroke-dasharray:none;stroke-opacity:1;paint-order:fill markers stroke"
       d="m 4.8046828,290.565 a 12.071723,3.3128826 0 0 0 -3.5761769,2.34991 12.071723,3.3128826 0 0 0 12.0721021,3.31293 12.071723,3.3128826 0 0 0 8.928523,-1.08834 12.071723,3.3128826 0 0 1 -8.495288,0.96239 12.071723,3.3128826 0 0 1 -12.0721026,-3.31294 12.071723,3.3128826 0 0 1 3.1429424,-2.22395 z"
       id="path1745"
       inkscape:connector-curvature="0" />
    <path
       id="path1747"
       d="m 12.654428,289.938 a 10.68972,2.8797297 0 0 1 7.851392,0.93072 10.68972,2.8797297 0 0 0 -7.444251,-0.81293 10.68972,2.8797297 0 0 0 -10.6898625,2.87931 10.68972,2.8797297 0 0 0 2.5119062,1.85471 10.68972,2.8797297 0 0 1 -2.9190477,-1.9725 10.68972,2.8797297 0 0 1 10.689863,-2.87931 z"
       style="opacity:1;fill:#cccccc;fill-opacity:0.40909095;stroke:#ececec;stroke-width:0;stroke-linecap:round;stroke-linejoin:round;stroke-miterlimit:4;stroke-dasharray:none;stroke-opacity:1;paint-order:fill markers stroke"
       inkscape:connector-curvature="0" />
    <path
       id="path1749"
       d="m 21.045647,290.73742 a 11.344442,3.0982767 0 0 1 3.360723,2.19768 11.344442,3.0982767 0 0 1 -11.344801,3.09834 11.344442,3.0982767 0 0 1 -8.3906098,-1.01785 11.344442,3.0982767 0 0 0 7.9834688,0.90006 11.344442,3.0982767 0 0 0 11.344801,-3.09834 11.344442,3.0982767 0 0 0 -2.953582,-2.07989 z"
       style="opacity:1;fill:#cccccc;fill-opacity:0.40909095;stroke:#ececec;stroke-width:0;stroke-linecap:round;stroke-linejoin:round;stroke-miterlimit:4;stroke-dasharray:none;stroke-opacity:1;paint-order:fill markers stroke"
       inkscape:connector-curvature="0" />
    <path
       inkscape:connector-curvature="0"
       id="path2433"
       d="m 13.667353,290.17447 a 9.7003352,2.6562907 0 0 0 -7.1247073,0.85852 9.7003352,2.6562907 0 0 1 6.7552553,-0.74985 9.7003352,2.6562907 0 0 1 9.700464,2.6559 9.7003352,2.6562907 0 0 1 -2.279427,1.7108 9.7003352,2.6562907 0 0 0 2.648879,-1.81946 9.7003352,2.6562907 0 0 0 -9.700464,-2.65591 z"
       style="opacity:1;fill:#cccccc;fill-opacity:0.40909095;stroke:#ececec;stroke-width:0;stroke-linecap:round;stroke-linejoin:round;stroke-miterlimit:4;stroke-dasharray:none;stroke-opacity:1;paint-order:fill markers stroke" />
    <path
       inkscape:connector-curvature="0"
       id="path2435"
       d="m 6.0527915,290.91188 a 10.29446,2.8578807 0 0 0 -3.0496734,2.02716 10.29446,2.8578807 0 0 0 10.2947829,2.85794 10.29446,2.8578807 0 0 0 7.61402,-0.93888 10.29446,2.8578807 0 0 1 -7.244568,0.83022 10.29446,2.8578807 0 0 1 -10.2947834,-2.85794 10.29446,2.8578807 0 0 1 2.6802219,-1.9185 z"
       style="opacity:1;fill:#cccccc;fill-opacity:0.40909095;stroke:#ececec;stroke-width:0;stroke-linecap:round;stroke-linejoin:round;stroke-miterlimit:4;stroke-dasharray:none;stroke-opacity:1;paint-order:fill markers stroke" />
    <path
       inkscape:connector-curvature="0"
       style="opacity:1;fill:#cccccc;fill-opacity:0.40909095;stroke:#ececec;stroke-width:0;stroke-linecap:round;stroke-linejoin:round;stroke-miterlimit:4;stroke-dasharray:none;stroke-opacity:1;paint-order:fill markers stroke"
       d="m 12.800886,290.84585 a 7.7415381,2.0219235 0 0 1 5.68601,0.65347 7.7415381,2.0219235 0 0 0 -5.391156,-0.57077 7.7415381,2.0219235 0 0 0 -7.7416416,2.02163 7.7415381,2.0219235 0 0 0 1.8191326,1.30223 7.7415381,2.0219235 0 0 1 -2.1139861,-1.38494 7.7415381,2.0219235 0 0 1 7.7416411,-2.02162 z"
       id="path4133" />
    <path
       inkscape:connector-curvature="0"
       style="opacity:1;fill:#cccccc;fill-opacity:0.40909095;stroke:#ececec;stroke-width:0;stroke-linecap:round;stroke-linejoin:round;stroke-miterlimit:4;stroke-dasharray:none;stroke-opacity:1;paint-order:fill markers stroke"
       d="m 18.877841,291.40714 a 8.2156904,2.1753703 0 0 1 2.433849,1.54304 8.2156904,2.1753703 0 0 1 -8.21595,2.17541 8.2156904,2.1753703 0 0 1 -6.0765136,-0.71465 8.2156904,2.1753703 0 0 0 5.7816596,0.63195 8.2156904,2.1753703 0 0 0 8.215951,-2.17542 8.2156904,2.1753703 0 0 0 -2.138996,-1.46033 z"
       id="path4135" />
  </g>
</svg>
