<?xml version="1.0" encoding="UTF-8" standalone="no"?>
<!-- Created with Inkscape (http://www.inkscape.org/) -->

<svg
   xmlns:dc="http://purl.org/dc/elements/1.1/"
   xmlns:cc="http://creativecommons.org/ns#"
   xmlns:rdf="http://www.w3.org/1999/02/22-rdf-syntax-ns#"
   xmlns:svg="http://www.w3.org/2000/svg"
   xmlns="http://www.w3.org/2000/svg"
   xmlns:sodipodi="http://sodipodi.sourceforge.net/DTD/sodipodi-0.dtd"
   xmlns:inkscape="http://www.inkscape.org/namespaces/inkscape"
   width="160"
   height="100"
   viewBox="0 0 42.333332 26.458335"
   version="1.1"
   id="svg10085"
   inkscape:version="0.92.4 (5da689c313, 2019-01-14)"
   sodipodi:docname="larox2_002.svg">
  <defs
     id="defs10079" />
  <sodipodi:namedview
     id="base"
     pagecolor="#ffffff"
     bordercolor="#666666"
     borderopacity="1.0"
     inkscape:pageopacity="0.0"
     inkscape:pageshadow="2"
     inkscape:zoom="3.959798"
     inkscape:cx="48.268967"
     inkscape:cy="48.778609"
     inkscape:document-units="mm"
     inkscape:current-layer="layer1"
     showgrid="false"
     inkscape:window-width="1920"
     inkscape:window-height="1001"
     inkscape:window-x="-9"
     inkscape:window-y="-9"
     inkscape:window-maximized="1"
     units="px"
     inkscape:snap-page="true"
     inkscape:snap-nodes="false" />
  <metadata
     id="metadata10082">
    <rdf:RDF>
      <cc:Work
         rdf:about="">
        <dc:format>image/svg+xml</dc:format>
        <dc:type
           rdf:resource="http://purl.org/dc/dcmitype/StillImage" />
        <dc:title></dc:title>
      </cc:Work>
    </rdf:RDF>
  </metadata>
  <g
     inkscape:label="Layer 1"
     inkscape:groupmode="layer"
     id="layer1"
     transform="translate(0,-270.54164)">
    <path
       id="path10811"
       style="color:#000000;font-style:normal;font-variant:normal;font-weight:normal;font-stretch:normal;font-size:medium;line-height:normal;font-family:sans-serif;font-variant-ligatures:normal;font-variant-position:normal;font-variant-caps:normal;font-variant-numeric:normal;font-variant-alternates:normal;font-feature-settings:normal;text-indent:0;text-align:start;text-decoration:none;text-decoration-line:none;text-decoration-style:solid;text-decoration-color:#000000;letter-spacing:normal;word-spacing:normal;text-transform:none;writing-mode:lr-tb;direction:ltr;text-orientation:mixed;dominant-baseline:auto;baseline-shift:baseline;text-anchor:start;white-space:normal;shape-padding:0;clip-rule:nonzero;display:inline;overflow:visible;visibility:visible;opacity:1;isolation:auto;mix-blend-mode:normal;color-interpolation:sRGB;color-interpolation-filters:linearRGB;solid-color:#000000;solid-opacity:1;vector-effect:none;fill:#29d971;fill-opacity:1;fill-rule:nonzero;stroke:none;stroke-width:0.26458332px;stroke-linecap:butt;stroke-linejoin:miter;stroke-miterlimit:4;stroke-dasharray:none;stroke-dashoffset:0;stroke-opacity:1;color-rendering:auto;image-rendering:auto;shape-rendering:auto;text-rendering:auto;enable-background:accumulate"
       d="m 6.2518612,291.60937 c 0.1362,0.0712 0.2613,0.15995 0.37208,0.26355 H 35.682622 c 0.11081,-0.10363 0.235828,-0.19237 0.372089,-0.26355 z m 2.79833,0.56833 H 33.309503 v 1.18497 H 9.0501912 Z m 27.8028998,-0.56572 c -0.730329,5.3e-4 -1.344351,0.54818 -1.427909,1.27369 l 0.973619,-0.47785 c 0.218282,-0.10713 0.460449,-0.11177 0.653892,-0.0328 0.193439,0.079 0.336147,0.22805 0.421058,0.40098 0.0848,0.17293 0.11517,0.37651 0.0594,0.57788 -0.0558,0.20136 -0.207571,0.38993 -0.425849,0.49707 h -0.003 l -0.940861,0.46169 c 0.21119,0.11517 0.44786,0.17554 0.68839,0.17559 0.794261,6e-5 1.438201,-0.64369 1.43836,-1.43793 7.9e-5,-0.79441 -0.643951,-1.43842 -1.43836,-1.43836 z m -0.0746,0.99514 c -0.0692,0.003 -0.14264,0.0211 -0.218602,0.0584 l -3.058707,1.50017 c -0.531662,0.26095 -0.255993,0.99125 0.228388,0.96996 0.0692,-0.003 0.142631,-0.0211 0.218591,-0.0584 l 3.05875,-1.50016 c 0.531648,-0.26095 0.25595,-0.99126 -0.22842,-0.96997 z M 5.4802112,291.61198 c 0.73033,5.3e-4 1.34435,0.54818 1.42791,1.27369 l -0.97362,-0.47785 c -0.21828,-0.10713 -0.46045,-0.11177 -0.65389,-0.0328 -0.19343,0.079 -0.33615,0.22805 -0.42105,0.40098 -0.0848,0.17293 -0.11518,0.37651 -0.0594,0.57788 0.0558,0.20136 0.20756,0.38993 0.42587,0.49707 h 0.003 l 0.94083,0.46169 c -0.21114,0.11517 -0.44784,0.17555 -0.68837,0.17559 -0.79425,1.1e-4 -1.43819,-0.64364 -1.43835,-1.43788 -8e-5,-0.79442 0.64394,-1.43843 1.43835,-1.43837 z m 0.14595,0.99927 c 0.0692,0.003 0.14264,0.0211 0.2186,0.0584 l 3.05869,1.50017 c 0.5316797,0.26095 0.2560097,0.99125 -0.22836,0.96996 -0.0692,-0.003 -0.14264,-0.0211 -0.2186,-0.0584 l -3.05875,-1.50015 c -0.53168,-0.26095 -0.25595,-0.99126 0.22842,-0.96997 z m 3.38473,1.39786 0.1431397,0.0703 c 0.30507,0.14974 0.39265,0.45846 0.31835,0.709 -0.0362,0.12215 -0.11848,0.2396 -0.22198,0.31781 H 33.13007 c -0.101468,-0.0828 -0.176099,-0.19732 -0.212908,-0.32143 -0.0743,-0.25053 -0.0654,-0.55926 0.23971,-0.709 l 0.13589,-0.0667 z"
       inkscape:connector-curvature="0" />
    <path
       inkscape:connector-curvature="0"
       d="m 6.2518612,287.81798 c 0.1362,0.0712 0.2613,0.15996 0.37208,0.26355 H 35.682622 c 0.11081,-0.10363 0.235828,-0.19237 0.372089,-0.26355 z m 2.79833,0.56834 H 33.309503 v 1.18496 H 9.0501912 Z M 36.853091,287.8206 c -0.730329,5.3e-4 -1.344351,0.54817 -1.427909,1.27369 l 0.973619,-0.47785 c 0.218282,-0.10714 0.460449,-0.11178 0.653892,-0.0328 0.193439,0.079 0.336147,0.22804 0.421058,0.40097 0.0848,0.17293 0.11517,0.37652 0.0594,0.57788 -0.0558,0.20136 -0.207571,0.38993 -0.425849,0.49707 h -0.003 l -0.940861,0.4617 c 0.21119,0.11517 0.44786,0.17554 0.68839,0.17558 0.794261,7e-5 1.438201,-0.64369 1.43836,-1.43792 7.9e-5,-0.79441 -0.643951,-1.43843 -1.43836,-1.43836 z m -0.0746,0.99514 c -0.0692,0.003 -0.14264,0.0211 -0.218602,0.0584 l -3.058707,1.50016 c -0.531662,0.26095 -0.255993,0.99125 0.228388,0.96997 0.0692,-0.003 0.142631,-0.0211 0.218591,-0.0584 l 3.05875,-1.50017 c 0.531648,-0.26095 0.25595,-0.99125 -0.22842,-0.96997 z M 5.4802112,287.8206 c 0.73033,5.3e-4 1.34435,0.54817 1.42791,1.27369 l -0.97362,-0.47785 c -0.21828,-0.10714 -0.46045,-0.11178 -0.65389,-0.0328 -0.19343,0.079 -0.33615,0.22804 -0.42105,0.40097 -0.0848,0.17293 -0.11518,0.37652 -0.0594,0.57788 0.0558,0.20137 0.20756,0.38993 0.42587,0.49707 h 0.003 l 0.94083,0.46169 c -0.21114,0.11518 -0.44784,0.17555 -0.68837,0.17559 -0.79425,1.1e-4 -1.43819,-0.64364 -1.43835,-1.43788 -8e-5,-0.79441 0.64394,-1.43843 1.43835,-1.43836 z m 0.14595,0.99927 c 0.0692,0.003 0.14264,0.0211 0.2186,0.0584 l 3.05869,1.50016 c 0.5316797,0.26095 0.2560097,0.99125 -0.22836,0.96997 -0.0692,-0.003 -0.14264,-0.0211 -0.2186,-0.0584 l -3.05875,-1.50016 c -0.53168,-0.26095 -0.25595,-0.99125 0.22842,-0.96997 z m 3.38473,1.39785 0.1431397,0.0703 c 0.30507,0.14974 0.39265,0.45847 0.31835,0.709 -0.0362,0.12216 -0.11848,0.2396 -0.22198,0.31781 H 33.13007 c -0.101468,-0.0828 -0.176099,-0.19732 -0.212908,-0.32143 -0.0743,-0.25053 -0.0654,-0.55925 0.23971,-0.709 l 0.13589,-0.0667 z"
       style="color:#000000;font-style:normal;font-variant:normal;font-weight:normal;font-stretch:normal;font-size:medium;line-height:normal;font-family:sans-serif;font-variant-ligatures:normal;font-variant-position:normal;font-variant-caps:normal;font-variant-numeric:normal;font-variant-alternates:normal;font-feature-settings:normal;text-indent:0;text-align:start;text-decoration:none;text-decoration-line:none;text-decoration-style:solid;text-decoration-color:#000000;letter-spacing:normal;word-spacing:normal;text-transform:none;writing-mode:lr-tb;direction:ltr;text-orientation:mixed;dominant-baseline:auto;baseline-shift:baseline;text-anchor:start;white-space:normal;shape-padding:0;clip-rule:nonzero;display:inline;overflow:visible;visibility:visible;opacity:1;isolation:auto;mix-blend-mode:normal;color-interpolation:sRGB;color-interpolation-filters:linearRGB;solid-color:#000000;solid-opacity:1;vector-effect:none;fill:#29d971;fill-opacity:1;fill-rule:nonzero;stroke:none;stroke-width:0.26458332px;stroke-linecap:butt;stroke-linejoin:miter;stroke-miterlimit:4;stroke-dasharray:none;stroke-dashoffset:0;stroke-opacity:1;color-rendering:auto;image-rendering:auto;shape-rendering:auto;text-rendering:auto;enable-background:accumulate"
       id="path10822" />
    <path
       id="path10824"
       style="color:#000000;font-style:normal;font-variant:normal;font-weight:normal;font-stretch:normal;font-size:medium;line-height:normal;font-family:sans-serif;font-variant-ligatures:normal;font-variant-position:normal;font-variant-caps:normal;font-variant-numeric:normal;font-variant-alternates:normal;font-feature-settings:normal;text-indent:0;text-align:start;text-decoration:none;text-decoration-line:none;text-decoration-style:solid;text-decoration-color:#000000;letter-spacing:normal;word-spacing:normal;text-transform:none;writing-mode:lr-tb;direction:ltr;text-orientation:mixed;dominant-baseline:auto;baseline-shift:baseline;text-anchor:start;white-space:normal;shape-padding:0;clip-rule:nonzero;display:inline;overflow:visible;visibility:visible;opacity:1;isolation:auto;mix-blend-mode:normal;color-interpolation:sRGB;color-interpolation-filters:linearRGB;solid-color:#000000;solid-opacity:1;vector-effect:none;fill:#29d971;fill-opacity:1;fill-rule:nonzero;stroke:none;stroke-width:0.26458332px;stroke-linecap:butt;stroke-linejoin:miter;stroke-miterlimit:4;stroke-dasharray:none;stroke-dashoffset:0;stroke-opacity:1;color-rendering:auto;image-rendering:auto;shape-rendering:auto;text-rendering:auto;enable-background:accumulate"
       d="m 6.2518612,283.99049 c 0.1362,0.0712 0.2613,0.15996 0.37208,0.26355 H 35.682622 c 0.11081,-0.10363 0.235828,-0.19237 0.372089,-0.26355 z m 2.79833,0.56833 H 33.309503 v 1.18497 H 9.0501912 Z m 27.8028998,-0.56571 c -0.730329,5.3e-4 -1.344351,0.54817 -1.427909,1.27369 l 0.973619,-0.47786 c 0.218282,-0.10713 0.460449,-0.11177 0.653892,-0.0328 0.193439,0.079 0.336147,0.22805 0.421058,0.40098 0.0848,0.17293 0.11517,0.37652 0.0594,0.57788 -0.0558,0.20136 -0.207571,0.38993 -0.425849,0.49707 h -0.003 l -0.940861,0.46169 c 0.21119,0.11518 0.44786,0.17555 0.68839,0.17559 0.794261,7e-5 1.438201,-0.64369 1.43836,-1.43793 7.9e-5,-0.7944 -0.643951,-1.43842 -1.43836,-1.43836 z m -0.0746,0.99514 c -0.0692,0.003 -0.14264,0.0211 -0.218602,0.0584 l -3.058707,1.50016 c -0.531662,0.26095 -0.255993,0.99125 0.228388,0.96997 0.0692,-0.003 0.142631,-0.0211 0.218591,-0.0584 l 3.05875,-1.50017 c 0.531648,-0.26095 0.25595,-0.99125 -0.22842,-0.96997 z M 5.4802112,283.99311 c 0.73033,5.3e-4 1.34435,0.54817 1.42791,1.27369 l -0.97362,-0.47785 c -0.21828,-0.10714 -0.46045,-0.11178 -0.65389,-0.0328 -0.19343,0.079 -0.33615,0.22804 -0.42105,0.40097 -0.0848,0.17293 -0.11518,0.37651 -0.0594,0.57788 0.0558,0.20136 0.20756,0.38993 0.42587,0.49707 h 0.003 l 0.94083,0.46169 c -0.21114,0.11522 -0.44784,0.17559 -0.68837,0.17563 -0.79425,7e-5 -1.43819,-0.64368 -1.43835,-1.43792 -8e-5,-0.79441 0.64394,-1.43843 1.43835,-1.43836 z m 0.14595,0.99926 c 0.0692,0.003 0.14264,0.0211 0.2186,0.0584 l 3.05869,1.50017 c 0.5316797,0.26095 0.2560097,0.99125 -0.22836,0.96997 -0.0692,-0.003 -0.14264,-0.0211 -0.2186,-0.0584 l -3.05875,-1.50016 c -0.53168,-0.26095 -0.25595,-0.99125 0.22842,-0.96997 z m 3.38473,1.39786 0.1431397,0.0703 c 0.30507,0.14974 0.39265,0.45847 0.31835,0.709 -0.0362,0.12216 -0.11848,0.2396 -0.22198,0.31781 H 33.13007 c -0.101468,-0.0828 -0.176099,-0.19732 -0.212908,-0.32143 -0.0743,-0.25053 -0.0654,-0.55925 0.23971,-0.709 l 0.13589,-0.0667 z"
       inkscape:connector-curvature="0" />
    <path
       inkscape:connector-curvature="0"
       d="m 6.2518612,280.08918 c 0.1362,0.0712 0.2613,0.15996 0.37208,0.26355 H 35.682622 c 0.11081,-0.10363 0.235828,-0.19237 0.372089,-0.26355 z m 2.79833,0.56834 H 33.309503 v 1.18496 H 9.0501912 Z M 36.853091,280.0918 c -0.730329,5.3e-4 -1.344351,0.54817 -1.427909,1.27369 l 0.973619,-0.47786 c 0.218282,-0.10713 0.460449,-0.11177 0.653892,-0.0328 0.193439,0.079 0.336147,0.22804 0.421058,0.40097 0.0848,0.17294 0.11517,0.37652 0.0594,0.57788 -0.0558,0.20136 -0.207571,0.38993 -0.425849,0.49707 h -0.003 l -0.940861,0.46169 c 0.21119,0.11518 0.44786,0.17555 0.68839,0.17559 0.794261,7e-5 1.438201,-0.64369 1.43836,-1.43793 7.9e-5,-0.7944 -0.643951,-1.43842 -1.43836,-1.43836 z m -0.0746,0.99514 c -0.0692,0.003 -0.14264,0.0211 -0.218602,0.0584 l -3.058707,1.50016 c -0.531662,0.26095 -0.255993,0.99125 0.228388,0.96997 0.0692,-0.003 0.142631,-0.0211 0.218591,-0.0584 l 3.05875,-1.50017 c 0.531648,-0.26095 0.25595,-0.99125 -0.22842,-0.96997 z M 5.4802112,280.0918 c 0.73033,5.3e-4 1.34435,0.54817 1.42791,1.27369 l -0.97362,-0.47785 c -0.21828,-0.10714 -0.46045,-0.11178 -0.65389,-0.0328 -0.19343,0.079 -0.33615,0.22804 -0.42105,0.40097 -0.0848,0.17293 -0.11518,0.37652 -0.0594,0.57788 0.0558,0.20137 0.20756,0.38993 0.42587,0.49707 h 0.003 l 0.94083,0.46169 c -0.21114,0.11518 -0.44784,0.17555 -0.68837,0.17559 -0.79425,1.1e-4 -1.43819,-0.64364 -1.43835,-1.43788 -8e-5,-0.79441 0.64394,-1.43843 1.43835,-1.43836 z m 0.14595,0.99927 c 0.0692,0.003 0.14264,0.0211 0.2186,0.0584 l 3.05869,1.50017 c 0.5316797,0.26095 0.2560097,0.99125 -0.22836,0.96997 -0.0692,-0.003 -0.14264,-0.0211 -0.2186,-0.0584 l -3.05875,-1.50017 c -0.53168,-0.26095 -0.25595,-0.99125 0.22842,-0.96997 z m 3.38473,1.39785 0.1431397,0.0703 c 0.30507,0.14975 0.39265,0.45847 0.31835,0.709 -0.0362,0.12216 -0.11848,0.2396 -0.22198,0.31781 H 33.13007 c -0.101468,-0.0828 -0.176099,-0.19732 -0.212908,-0.32143 -0.0743,-0.25053 -0.0654,-0.55925 0.23971,-0.709 l 0.13589,-0.0667 z"
       style="color:#000000;font-style:normal;font-variant:normal;font-weight:normal;font-stretch:normal;font-size:medium;line-height:normal;font-family:sans-serif;font-variant-ligatures:normal;font-variant-position:normal;font-variant-caps:normal;font-variant-numeric:normal;font-variant-alternates:normal;font-feature-settings:normal;text-indent:0;text-align:start;text-decoration:none;text-decoration-line:none;text-decoration-style:solid;text-decoration-color:#000000;letter-spacing:normal;word-spacing:normal;text-transform:none;writing-mode:lr-tb;direction:ltr;text-orientation:mixed;dominant-baseline:auto;baseline-shift:baseline;text-anchor:start;white-space:normal;shape-padding:0;clip-rule:nonzero;display:inline;overflow:visible;visibility:visible;opacity:1;isolation:auto;mix-blend-mode:normal;color-interpolation:sRGB;color-interpolation-filters:linearRGB;solid-color:#000000;solid-opacity:1;vector-effect:none;fill:#29d971;fill-opacity:1;fill-rule:nonzero;stroke:none;stroke-width:0.26458332px;stroke-linecap:butt;stroke-linejoin:miter;stroke-miterlimit:4;stroke-dasharray:none;stroke-dashoffset:0;stroke-opacity:1;color-rendering:auto;image-rendering:auto;shape-rendering:auto;text-rendering:auto;enable-background:accumulate"
       id="path10826" />
    <rect
       style="opacity:1;fill:#29d971;fill-opacity:1;stroke:#ececec;stroke-width:0;stroke-linecap:round;stroke-linejoin:round;stroke-miterlimit:4;stroke-dasharray:none;stroke-opacity:1;paint-order:fill markers stroke"
       id="rect10832"
       width="24.28084"
       height="1.09709"
       x="9.0262461"
       y="278.66522" />
    <path
       style="opacity:1;fill:none;fill-opacity:1;stroke:#29d971;stroke-width:0.2;stroke-linecap:round;stroke-linejoin:round;stroke-miterlimit:4;stroke-dasharray:none;stroke-opacity:1;paint-order:fill markers stroke"
       d="m 3.2537148,272.29731 v 23.22114 H 39.042156 v -23.22114 z"
       id="rect12736"
       inkscape:connector-curvature="0"
       sodipodi:nodetypes="ccccc" />
  </g>
</svg>
